cxc,00:14.0,200,27/1/2019
sdfgh,00:21.5,300,27/1/2019
dff,00:14.5,200,27/1/2019
bryan,00:20.5,300,27/1/2019
bryanP,00:17.5,400,27/1/2019
bryanPP,00:19.0,400,27/1/2019
BRYAN,00:7.5,200,6/2/2019
dsf,00:3.5,0,7/2/2019
asdas,00:8.0,0,7/2/2019
sdsad,00:3.5,0,7/2/2019
